<svg version="1.1" viewBox="0 0 16 16.005" xmlns="http://www.w3.org/2000/svg" xmlns:osb="http://www.openswatchbook.org/uri/2009/osb">
 <title>Gnome Symbolic Icon Theme</title>
 <path d="m3.8123 11.078c-0.39864 0-0.76096-0.32556-0.76096-0.72245 0-0.39689 0.32556-0.72464 0.76096-0.72464 0.43758 0 0.76621 0.326 0.76621 0.72464 0 0.39689-0.36451 0.72245-0.76358 0.72245zm9.342-3.9448c-0.08008-0.57892-0.43758-1.0506-0.90974-1.4108l-0.18422-0.14572-0.14834 0.17985c-0.28706 0.326-0.40301 0.90492-0.36713 1.3377 0.03458 0.32863 0.13871 0.65419 0.32381 0.90711-0.15053 0.077448-0.33256 0.14572-0.47434 0.22098-0.33256 0.10896-0.65638 0.14572-0.97975 0.14572h-9.3577l-0.036758 0.21398c-0.068263 0.69095 0.036758 1.413 0.32863 2.0671l0.14353 0.25336v0.03368c0.87517 1.4497 2.4317 2.1017 4.1295 2.1017 3.2639 0 5.9393-1.4108 7.2083-4.4533 0.83184 0.036325 1.6711-0.18028 2.065-0.978l0.10503-0.17983-0.17328-0.10983c-0.47391-0.28925-1.1215-0.32775-1.6633-0.18204l-0.0119 0.00218zm-4.6721-0.57892h-1.4173v1.4125h1.4173zm0-1.7753h-1.4173v1.4125h1.4173zm0-1.812h-1.4173v1.413h1.4173zm1.732 3.5873h-1.4086v1.4125h1.413v-1.4125zm-5.2484 0h-1.4086v1.4125h1.413v-1.4125zm1.7661 0h-1.399v1.4125h1.4086v-1.4125zm-3.5164 0h-1.3998v1.4125h1.4178v-1.4125zm3.5164-1.7753h-1.399v1.4125h1.4086v-1.4108zm-1.7757 0h-1.3968v1.4125h1.4086v-1.4108l-0.00918-0.00176z" stroke-width=".99999"/>
</svg>
